
15/10/2019 6:49:16 PMEdit_Click Started
15/10/2019 6:49:18 PMEdit_Click Started
15/10/2019 6:49:19 PMEdit_Click Started
16/10/2019 10:02:43 AMEdit_Click Started
16/10/2019 10:02:48 AMEdit_Click Started
16/10/2019 10:02:52 AMEdit_Click Started
16/10/2019 10:02:53 AMEdit_Click Started
16/10/2019 10:02:53 AMEdit_Click Started
16/10/2019 10:02:54 AMEdit_Click Started
16/10/2019 10:02:56 AMEdit_Click Started
16/10/2019 10:02:57 AMEdit_Click Started
16/10/2019 10:07:46 AMEdit_Click Started
16/10/2019 10:07:52 AMEdit_Click Started
16/10/2019 10:11:51 AMEdit_Click Started
16/10/2019 10:11:55 AMEdit_Click Started
16/10/2019 10:12:35 AMEdit_Click Started
16/10/2019 10:12:41 AMEdit_Click Started
16/10/2019 10:12:41 AMEdit_Click Started
16/10/2019 10:12:53 AMEdit_Click Started
16/10/2019 10:12:55 AMEdit_Click Started
16/10/2019 10:12:55 AMEdit_Click Started
16/10/2019 10:13:37 AMEdit_Click Started
16/10/2019 10:13:39 AMEdit_Click Started
16/10/2019 10:13:41 AMEdit_Click Started
16/10/2019 10:13:42 AMEdit_Click Started
16/10/2019 10:13:43 AMEdit_Click Started
17/10/2019 11:20:39 AMEdit_Click Started
17/10/2019 11:20:41 AMEdit_Click Started
17/10/2019 11:20:42 AMEdit_Click Started
17/10/2019 11:20:57 AMEdit_Click Started
17/10/2019 11:20:59 AMEdit_Click Started
17/10/2019 11:21:00 AMEdit_Click Started
17/10/2019 11:21:01 AMEdit_Click Started
17/10/2019 11:21:01 AMEdit_Click Started
