
14/08/2018 3:39:55 PM      ---TestRegisterMasterAdd() Start
14/08/2018 3:40:00 PM      ---TestRegisterMasterAdd() completed
14/08/2018 3:40:04 PM      ---LAB_TEST_REGISTER_DETAIL delete  completed
14/08/2018 3:40:08 PM      ---TestRegisterDetailAdd   completed
14/08/2018 3:40:08 PM      ---fnSave() completed
14/08/2018 3:40:35 PM      ---TestRegisterMasterAdd() Start
14/08/2018 3:40:35 PM      ---TestRegisterMasterAdd() completed
14/08/2018 3:40:35 PM      ---LAB_TEST_REGISTER_DETAIL delete  completed
14/08/2018 3:40:36 PM      ---TestRegisterDetailAdd   completed
14/08/2018 3:40:36 PM      ---fnSave() completed
