
01/02/2021 11:31:40 AM  Save Started 
01/02/2021 11:31:41 AMPatent Master Insert End 
-----------------------------------------------
01/02/2021 11:31:41 AM      PTRegistration.btnSave_Click
D:\InsCards\201538104536.jpg
01/02/2021 11:32:14 AM Patient Visit Save Started 
01/02/2021 11:32:14 AMPatient Visit Insert End 
-----------------------------------------------
01/02/2021 11:32:14 AM      PTRegistration.btnSaveVisit_Click
D:\InsCards\201538104536.jpg
01/02/2021 11:33:20 AM  Save Started 
01/02/2021 11:33:20 AMPatent Master Insert End 
01/02/2021 11:33:36 AM Patient Visit Save Started 
01/02/2021 11:33:36 AMPatient Visit Insert End 
-----------------------------------------------
03/02/2021 11:38:50 AMbtnShow_Click
DataBinding: 'System.Data.DataRowView' does not contain a property with the name 'LTSM_CREATED_USER'.
-----------------------------------------------
03/02/2021 11:40:01 AMbtnShow_Click
DataBinding: 'System.Data.DataRowView' does not contain a property with the name 'LTSM_CREATED_USER'.
-----------------------------------------------
03/02/2021 11:40:02 AMbtnShow_Click
DataBinding: 'System.Data.DataRowView' does not contain a property with the name 'LTSM_CREATED_USER'.
-----------------------------------------------
03/02/2021 11:40:02 AMbtnShow_Click
DataBinding: 'System.Data.DataRowView' does not contain a property with the name 'LTSM_CREATED_USER'.
-----------------------------------------------
03/02/2021 11:41:25 AMbtnShow_Click
DataBinding: 'System.Data.DataRowView' does not contain a property with the name 'LTSM_CREATED_USER'.
-----------------------------------------------
03/02/2021 11:41:27 AMbtnShow_Click
DataBinding: 'System.Data.DataRowView' does not contain a property with the name 'LTSM_CREATED_USER'.
-----------------------------------------------
03/02/2021 11:41:28 AMbtnShow_Click
DataBinding: 'System.Data.DataRowView' does not contain a property with the name 'LTSM_CREATED_USER'.
-----------------------------------------------
03/02/2021 4:30:02 PMbtnShow_Click
Invalid column name 'EPM_BRANCH_ID'.
Invalid column name 'Completed'.
Invalid column name 'EPM_DATE'.
Invalid column name 'EPM_DATE'.
	
				SELECT DISTINCT HIM_INVOICE_ID AS ID,
				MAX( HIM_PT_ID )as FileNo
				,MAX(him_pt_name) as PatientName
				,MAX( HPM_MOBILE) AS MobileNo
				,MAX(HIM_DR_NAME) as Doctor
				,'Invoice' as TransType
				, MAX(HIM_INVOICE_TYPE) as PatientType 
				,''  AS ServiceRequested
				,CONVERT(VARCHAR,MAX(HIM_DATE),103) AS TransDate
				,MAX(HIM_DR_CODE) AS DoctorID
				,'' as ServiceID
				,CASE WHEN MAX(HIT_LAB_STATUS) ='LAB_REGISTERED' THEN 'Test Registred'  WHEN MAX(HIT_LAB_STATUS) ='LAB_SAMPLE_COLLECTED' THEN 'Sample Collected' 
				    WHEN MAX(HIT_LAB_STATUS) ='LAB_TEST_COMPLETED' THEN 'Test Completed'  ELSE 'Waiting' END AS Status
				,'Completed' AS InvoiceStatus
				,'' as Priority
				 FROM HMS_INVOICE_MASTER INNER JOIN HMS_INVOICE_TRANSACTION ON HIM_INVOICE_ID=HIT_INVOICE_ID LEFT JOIN
					HMS_PATIENT_MASTER ON  HIM_BRANCH_ID = HPM_BRANCH_ID AND  HIM_PT_ID = HPM_PT_ID

			  WHERE  1=1   AND EPM_BRANCH_ID='MAIN' AND Completed IS NULL  AND   CONVERT(datetime,convert(varchar(10),EPM_DATE ,101),101) >= '2021-01-01 00:00:00 ' AND   CONVERT(datetime,convert(varchar(10),EPM_DATE ,101),101) <= '2021-02-03 00:00:00 '  GROUP BY HIM_INVOICE_ID  ORDER BY ID
03/02/2021 4:48:08 PM Patient Visit Save Started 
03/02/2021 4:48:08 PMPatient Visit Insert End 
-----------------------------------------------
03/02/2021 5:08:59 PMbtnShow_Click
Column 'HMS_INVOICE_MASTER.HIM_EMR_ID' is invalid in the select list because it is not contained in either an aggregate function or the GROUP BY clause.
Column 'HMS_INVOICE_TRANSACTION.HIT_SERV_CODE' is invalid in the select list because it is not contained in either an aggregate function or the GROUP BY clause.
	
				SELECT DISTINCT HIM_INVOICE_ID AS ID,
				MAX( HIM_PT_ID )as FileNo
				,MAX(him_pt_name) as PatientName
				,MAX( HPM_MOBILE) AS MobileNo
				,MAX(HIM_DR_NAME) as Doctor
				,'Invoice' as TransType
				, MAX(HIM_INVOICE_TYPE) as PatientType 
				,''  AS ServiceRequested
				,CONVERT(VARCHAR,MAX(HIM_DATE),103) AS TransDate
				,MAX(HIM_DR_CODE) AS DoctorID
				,'' as ServiceID
				,CASE WHEN MAX(HIT_LAB_STATUS) ='LAB_REGISTERED' THEN 'Test Registred'  WHEN MAX(HIT_LAB_STATUS) ='LAB_SAMPLE_COLLECTED' THEN 'Sample Collected' 
				    WHEN MAX(HIT_LAB_STATUS) ='LAB_TEST_COMPLETED' THEN 'Test Completed'  ELSE 'Waiting' END AS Status
				,'Completed' AS InvoiceStatus
				,(SELECT TOP 1 EPL_PRIORITY from EMR_PT_LABORATORY where EPL_ID = HIM_EMR_ID AND EPL_SERV_ID = HIT_SERV_CODE )   as Priority
				 FROM HMS_INVOICE_MASTER INNER JOIN HMS_INVOICE_TRANSACTION ON HIM_INVOICE_ID=HIT_INVOICE_ID LEFT JOIN
					HMS_PATIENT_MASTER ON  HIM_BRANCH_ID = HPM_BRANCH_ID AND  HIM_PT_ID = HPM_PT_ID

			  WHERE  1=1   AND HIT_LAB_STATUS IS NULL  AND HIT_SERV_TYPE='L'   AND HIM_BRANCH_ID='MAIN' AND   CONVERT(datetime,convert(varchar(10),HIM_DATE,101),101) >= '2021-02-03 00:00:00 ' AND   CONVERT(datetime,convert(varchar(10),HIM_DATE,101),101) <= '2021-02-03 00:00:00 '  GROUP BY HIM_INVOICE_ID  ORDER BY ID
-----------------------------------------------
03/02/2021 5:09:16 PMPage_Load
Column 'HMS_INVOICE_MASTER.HIM_EMR_ID' is invalid in the select list because it is not contained in either an aggregate function or the GROUP BY clause.
Column 'HMS_INVOICE_TRANSACTION.HIT_SERV_CODE' is invalid in the select list because it is not contained in either an aggregate function or the GROUP BY clause.
	
				SELECT DISTINCT HIM_INVOICE_ID AS ID,
				MAX( HIM_PT_ID )as FileNo
				,MAX(him_pt_name) as PatientName
				,MAX( HPM_MOBILE) AS MobileNo
				,MAX(HIM_DR_NAME) as Doctor
				,'Invoice' as TransType
				, MAX(HIM_INVOICE_TYPE) as PatientType 
				,''  AS ServiceRequested
				,CONVERT(VARCHAR,MAX(HIM_DATE),103) AS TransDate
				,MAX(HIM_DR_CODE) AS DoctorID
				,'' as ServiceID
				,CASE WHEN MAX(HIT_LAB_STATUS) ='LAB_REGISTERED' THEN 'Test Registred'  WHEN MAX(HIT_LAB_STATUS) ='LAB_SAMPLE_COLLECTED' THEN 'Sample Collected' 
				    WHEN MAX(HIT_LAB_STATUS) ='LAB_TEST_COMPLETED' THEN 'Test Completed'  ELSE 'Waiting' END AS Status
				,'Completed' AS InvoiceStatus
				,(SELECT TOP 1 EPL_PRIORITY from EMR_PT_LABORATORY where EPL_ID = HIM_EMR_ID AND EPL_SERV_ID = HIT_SERV_CODE )   as Priority
				 FROM HMS_INVOICE_MASTER INNER JOIN HMS_INVOICE_TRANSACTION ON HIM_INVOICE_ID=HIT_INVOICE_ID LEFT JOIN
					HMS_PATIENT_MASTER ON  HIM_BRANCH_ID = HPM_BRANCH_ID AND  HIM_PT_ID = HPM_PT_ID

			  WHERE  1=1   AND HIT_LAB_STATUS IS NULL  AND HIT_SERV_TYPE='L'   AND HIM_BRANCH_ID='MAIN' AND   CONVERT(datetime,convert(varchar(10),HIM_DATE,101),101) >= '2021-02-03 00:00:00 ' AND   CONVERT(datetime,convert(varchar(10),HIM_DATE,101),101) <= '2021-02-03 00:00:00 '  GROUP BY HIM_INVOICE_ID  ORDER BY ID
-----------------------------------------------
03/02/2021 5:09:22 PMbtnShow_Click
Column 'HMS_INVOICE_MASTER.HIM_EMR_ID' is invalid in the select list because it is not contained in either an aggregate function or the GROUP BY clause.
Column 'HMS_INVOICE_TRANSACTION.HIT_SERV_CODE' is invalid in the select list because it is not contained in either an aggregate function or the GROUP BY clause.
	
				SELECT DISTINCT HIM_INVOICE_ID AS ID,
				MAX( HIM_PT_ID )as FileNo
				,MAX(him_pt_name) as PatientName
				,MAX( HPM_MOBILE) AS MobileNo
				,MAX(HIM_DR_NAME) as Doctor
				,'Invoice' as TransType
				, MAX(HIM_INVOICE_TYPE) as PatientType 
				,''  AS ServiceRequested
				,CONVERT(VARCHAR,MAX(HIM_DATE),103) AS TransDate
				,MAX(HIM_DR_CODE) AS DoctorID
				,'' as ServiceID
				,CASE WHEN MAX(HIT_LAB_STATUS) ='LAB_REGISTERED' THEN 'Test Registred'  WHEN MAX(HIT_LAB_STATUS) ='LAB_SAMPLE_COLLECTED' THEN 'Sample Collected' 
				    WHEN MAX(HIT_LAB_STATUS) ='LAB_TEST_COMPLETED' THEN 'Test Completed'  ELSE 'Waiting' END AS Status
				,'Completed' AS InvoiceStatus
				,(SELECT TOP 1 EPL_PRIORITY from EMR_PT_LABORATORY where EPL_ID = HIM_EMR_ID AND EPL_SERV_ID = HIT_SERV_CODE )   as Priority
				 FROM HMS_INVOICE_MASTER INNER JOIN HMS_INVOICE_TRANSACTION ON HIM_INVOICE_ID=HIT_INVOICE_ID LEFT JOIN
					HMS_PATIENT_MASTER ON  HIM_BRANCH_ID = HPM_BRANCH_ID AND  HIM_PT_ID = HPM_PT_ID

			  WHERE  1=1   AND HIT_LAB_STATUS IS NULL  AND HIT_SERV_TYPE='L'   AND HIM_BRANCH_ID='MAIN' AND   CONVERT(datetime,convert(varchar(10),HIM_DATE,101),101) >= '2021-02-03 00:00:00 ' AND   CONVERT(datetime,convert(varchar(10),HIM_DATE,101),101) <= '2021-02-03 00:00:00 '  GROUP BY HIM_INVOICE_ID  ORDER BY ID
-----------------------------------------------
03/02/2021 5:09:27 PMbtnShow_Click
Column 'HMS_INVOICE_MASTER.HIM_EMR_ID' is invalid in the select list because it is not contained in either an aggregate function or the GROUP BY clause.
Column 'HMS_INVOICE_TRANSACTION.HIT_SERV_CODE' is invalid in the select list because it is not contained in either an aggregate function or the GROUP BY clause.
	
				SELECT DISTINCT HIM_INVOICE_ID AS ID,
				MAX( HIM_PT_ID )as FileNo
				,MAX(him_pt_name) as PatientName
				,MAX( HPM_MOBILE) AS MobileNo
				,MAX(HIM_DR_NAME) as Doctor
				,'Invoice' as TransType
				, MAX(HIM_INVOICE_TYPE) as PatientType 
				,''  AS ServiceRequested
				,CONVERT(VARCHAR,MAX(HIM_DATE),103) AS TransDate
				,MAX(HIM_DR_CODE) AS DoctorID
				,'' as ServiceID
				,CASE WHEN MAX(HIT_LAB_STATUS) ='LAB_REGISTERED' THEN 'Test Registred'  WHEN MAX(HIT_LAB_STATUS) ='LAB_SAMPLE_COLLECTED' THEN 'Sample Collected' 
				    WHEN MAX(HIT_LAB_STATUS) ='LAB_TEST_COMPLETED' THEN 'Test Completed'  ELSE 'Waiting' END AS Status
				,'Completed' AS InvoiceStatus
				,(SELECT TOP 1 EPL_PRIORITY from EMR_PT_LABORATORY where EPL_ID = HIM_EMR_ID AND EPL_SERV_ID = HIT_SERV_CODE )   as Priority
				 FROM HMS_INVOICE_MASTER INNER JOIN HMS_INVOICE_TRANSACTION ON HIM_INVOICE_ID=HIT_INVOICE_ID LEFT JOIN
					HMS_PATIENT_MASTER ON  HIM_BRANCH_ID = HPM_BRANCH_ID AND  HIM_PT_ID = HPM_PT_ID

			  WHERE  1=1   AND HIT_LAB_STATUS IS NULL  AND HIT_SERV_TYPE='L'   AND HIM_BRANCH_ID='MAIN' AND   CONVERT(datetime,convert(varchar(10),HIM_DATE,101),101) >= '2021-02-03 00:00:00 ' AND   CONVERT(datetime,convert(varchar(10),HIM_DATE,101),101) <= '2021-02-03 00:00:00 '  GROUP BY HIM_INVOICE_ID  ORDER BY ID
-----------------------------------------------
03/02/2021 5:09:35 PMbtnShow_Click
Column 'HMS_INVOICE_MASTER.HIM_EMR_ID' is invalid in the select list because it is not contained in either an aggregate function or the GROUP BY clause.
Column 'HMS_INVOICE_TRANSACTION.HIT_SERV_CODE' is invalid in the select list because it is not contained in either an aggregate function or the GROUP BY clause.
	
				SELECT DISTINCT HIM_INVOICE_ID AS ID,
				MAX( HIM_PT_ID )as FileNo
				,MAX(him_pt_name) as PatientName
				,MAX( HPM_MOBILE) AS MobileNo
				,MAX(HIM_DR_NAME) as Doctor
				,'Invoice' as TransType
				, MAX(HIM_INVOICE_TYPE) as PatientType 
				,''  AS ServiceRequested
				,CONVERT(VARCHAR,MAX(HIM_DATE),103) AS TransDate
				,MAX(HIM_DR_CODE) AS DoctorID
				,'' as ServiceID
				,CASE WHEN MAX(HIT_LAB_STATUS) ='LAB_REGISTERED' THEN 'Test Registred'  WHEN MAX(HIT_LAB_STATUS) ='LAB_SAMPLE_COLLECTED' THEN 'Sample Collected' 
				    WHEN MAX(HIT_LAB_STATUS) ='LAB_TEST_COMPLETED' THEN 'Test Completed'  ELSE 'Waiting' END AS Status
				,'Completed' AS InvoiceStatus
				,(SELECT TOP 1 EPL_PRIORITY from EMR_PT_LABORATORY where EPL_ID = HIM_EMR_ID AND EPL_SERV_ID = HIT_SERV_CODE )   as Priority
				 FROM HMS_INVOICE_MASTER INNER JOIN HMS_INVOICE_TRANSACTION ON HIM_INVOICE_ID=HIT_INVOICE_ID LEFT JOIN
					HMS_PATIENT_MASTER ON  HIM_BRANCH_ID = HPM_BRANCH_ID AND  HIM_PT_ID = HPM_PT_ID

			  WHERE  1=1   AND HIT_LAB_STATUS IS NULL  AND HIT_SERV_TYPE='L'   AND HIM_BRANCH_ID='MAIN' AND   CONVERT(datetime,convert(varchar(10),HIM_DATE,101),101) >= '2021-02-03 00:00:00 ' AND   CONVERT(datetime,convert(varchar(10),HIM_DATE,101),101) <= '2021-02-03 00:00:00 '  GROUP BY HIM_INVOICE_ID  ORDER BY ID
-----------------------------------------------
03/02/2021 5:10:39 PMbtnShow_Click
Column 'HMS_INVOICE_MASTER.HIM_EMR_ID' is invalid in the select list because it is not contained in either an aggregate function or the GROUP BY clause.
	
				SELECT DISTINCT HIM_INVOICE_ID AS ID,
				MAX( HIM_PT_ID )as FileNo
				,MAX(him_pt_name) as PatientName
				,MAX( HPM_MOBILE) AS MobileNo
				,MAX(HIM_DR_NAME) as Doctor
				,'Invoice' as TransType
				, MAX(HIM_INVOICE_TYPE) as PatientType 
				,''  AS ServiceRequested
				,CONVERT(VARCHAR,MAX(HIM_DATE),103) AS TransDate
				,MAX(HIM_DR_CODE) AS DoctorID
				,'' as ServiceID
				,CASE WHEN MAX(HIT_LAB_STATUS) ='LAB_REGISTERED' THEN 'Test Registred'  WHEN MAX(HIT_LAB_STATUS) ='LAB_SAMPLE_COLLECTED' THEN 'Sample Collected' 
				    WHEN MAX(HIT_LAB_STATUS) ='LAB_TEST_COMPLETED' THEN 'Test Completed'  ELSE 'Waiting' END AS Status
				,'Completed' AS InvoiceStatus
				,(SELECT TOP 1 EPL_PRIORITY from EMR_PT_LABORATORY where EPL_ID = HIM_EMR_ID AND EPL_SERV_ID = max( HIT_SERV_CODE) )   as Priority
				 FROM HMS_INVOICE_MASTER INNER JOIN HMS_INVOICE_TRANSACTION ON HIM_INVOICE_ID=HIT_INVOICE_ID LEFT JOIN
					HMS_PATIENT_MASTER ON  HIM_BRANCH_ID = HPM_BRANCH_ID AND  HIM_PT_ID = HPM_PT_ID

			  WHERE  1=1   AND HIT_LAB_STATUS IS NULL  AND HIT_SERV_TYPE='L'   AND HIM_BRANCH_ID='MAIN' AND   CONVERT(datetime,convert(varchar(10),HIM_DATE,101),101) >= '2021-02-03 00:00:00 ' AND   CONVERT(datetime,convert(varchar(10),HIM_DATE,101),101) <= '2021-02-03 00:00:00 '  GROUP BY HIM_INVOICE_ID  ORDER BY ID
-----------------------------------------------
03/02/2021 5:15:47 PMbtnShow_Click
Column 'HMS_INVOICE_TRANSACTION.HIT_SERV_CODE' is invalid in the select list because it is not contained in either an aggregate function or the GROUP BY clause.
	
				SELECT DISTINCT HIM_INVOICE_ID AS ID,
				MAX( HIM_PT_ID )as FileNo
				,MAX(HIM_PT_NAME) as PatientName
				,MAX( HPM_MOBILE) AS MobileNo
				,MAX(HIM_DR_NAME) as Doctor
				,'Invoice' as TransType
				, MAX(HIM_INVOICE_TYPE) as PatientType 
				,''  AS ServiceRequested
				,CONVERT(VARCHAR,MAX(HIM_DATE),103) AS TransDate
				,MAX(HIM_DR_CODE) AS DoctorID
				,'' as ServiceID
				,CASE WHEN MAX(HIT_LAB_STATUS) ='LAB_REGISTERED' THEN 'Test Registred'  WHEN MAX(HIT_LAB_STATUS) ='LAB_SAMPLE_COLLECTED' THEN 'Sample Collected' 
				    WHEN MAX(HIT_LAB_STATUS) ='LAB_TEST_COMPLETED' THEN 'Test Completed'  ELSE 'Waiting' END AS Status
				,'Completed' AS InvoiceStatus
				,(select TOP 1 EPL_PRIORITY from EMR_PT_LABORATORY where EPL_ID = MAX(HIM_EMR_ID) AND EPL_SERV_ID = HIT_SERV_CODE )   as Priority
				 FROM HMS_INVOICE_MASTER INNER JOIN HMS_INVOICE_TRANSACTION ON HIM_INVOICE_ID=HIT_INVOICE_ID LEFT JOIN
					HMS_PATIENT_MASTER ON  HIM_BRANCH_ID = HPM_BRANCH_ID AND  HIM_PT_ID = HPM_PT_ID

			  WHERE  1=1   AND HIT_LAB_STATUS IS NULL  AND HIT_SERV_TYPE='L'   AND HIM_BRANCH_ID='MAIN' AND   CONVERT(datetime,convert(varchar(10),HIM_DATE,101),101) >= '2021-02-03 00:00:00 ' AND   CONVERT(datetime,convert(varchar(10),HIM_DATE,101),101) <= '2021-02-03 00:00:00 '  GROUP BY HIM_INVOICE_ID  ORDER BY ID
-----------------------------------------------
03/02/2021 5:15:52 PMPage_Load
Column 'HMS_INVOICE_TRANSACTION.HIT_SERV_CODE' is invalid in the select list because it is not contained in either an aggregate function or the GROUP BY clause.
	
				SELECT DISTINCT HIM_INVOICE_ID AS ID,
				MAX( HIM_PT_ID )as FileNo
				,MAX(HIM_PT_NAME) as PatientName
				,MAX( HPM_MOBILE) AS MobileNo
				,MAX(HIM_DR_NAME) as Doctor
				,'Invoice' as TransType
				, MAX(HIM_INVOICE_TYPE) as PatientType 
				,''  AS ServiceRequested
				,CONVERT(VARCHAR,MAX(HIM_DATE),103) AS TransDate
				,MAX(HIM_DR_CODE) AS DoctorID
				,'' as ServiceID
				,CASE WHEN MAX(HIT_LAB_STATUS) ='LAB_REGISTERED' THEN 'Test Registred'  WHEN MAX(HIT_LAB_STATUS) ='LAB_SAMPLE_COLLECTED' THEN 'Sample Collected' 
				    WHEN MAX(HIT_LAB_STATUS) ='LAB_TEST_COMPLETED' THEN 'Test Completed'  ELSE 'Waiting' END AS Status
				,'Completed' AS InvoiceStatus
				,(select TOP 1 EPL_PRIORITY from EMR_PT_LABORATORY where EPL_ID = MAX(HIM_EMR_ID) AND EPL_SERV_ID = HIT_SERV_CODE )   as Priority
				 FROM HMS_INVOICE_MASTER INNER JOIN HMS_INVOICE_TRANSACTION ON HIM_INVOICE_ID=HIT_INVOICE_ID LEFT JOIN
					HMS_PATIENT_MASTER ON  HIM_BRANCH_ID = HPM_BRANCH_ID AND  HIM_PT_ID = HPM_PT_ID

			  WHERE  1=1   AND HIT_LAB_STATUS IS NULL  AND HIT_SERV_TYPE='L'   AND HIM_BRANCH_ID='MAIN' AND   CONVERT(datetime,convert(varchar(10),HIM_DATE,101),101) >= '2021-02-03 00:00:00 ' AND   CONVERT(datetime,convert(varchar(10),HIM_DATE,101),101) <= '2021-02-03 00:00:00 '  GROUP BY HIM_INVOICE_ID  ORDER BY ID
-----------------------------------------------
03/02/2021 5:15:54 PMbtnShow_Click
Column 'HMS_INVOICE_TRANSACTION.HIT_SERV_CODE' is invalid in the select list because it is not contained in either an aggregate function or the GROUP BY clause.
	
				SELECT DISTINCT HIM_INVOICE_ID AS ID,
				MAX( HIM_PT_ID )as FileNo
				,MAX(HIM_PT_NAME) as PatientName
				,MAX( HPM_MOBILE) AS MobileNo
				,MAX(HIM_DR_NAME) as Doctor
				,'Invoice' as TransType
				, MAX(HIM_INVOICE_TYPE) as PatientType 
				,''  AS ServiceRequested
				,CONVERT(VARCHAR,MAX(HIM_DATE),103) AS TransDate
				,MAX(HIM_DR_CODE) AS DoctorID
				,'' as ServiceID
				,CASE WHEN MAX(HIT_LAB_STATUS) ='LAB_REGISTERED' THEN 'Test Registred'  WHEN MAX(HIT_LAB_STATUS) ='LAB_SAMPLE_COLLECTED' THEN 'Sample Collected' 
				    WHEN MAX(HIT_LAB_STATUS) ='LAB_TEST_COMPLETED' THEN 'Test Completed'  ELSE 'Waiting' END AS Status
				,'Completed' AS InvoiceStatus
				,(select TOP 1 EPL_PRIORITY from EMR_PT_LABORATORY where EPL_ID = MAX(HIM_EMR_ID) AND EPL_SERV_ID = HIT_SERV_CODE )   as Priority
				 FROM HMS_INVOICE_MASTER INNER JOIN HMS_INVOICE_TRANSACTION ON HIM_INVOICE_ID=HIT_INVOICE_ID LEFT JOIN
					HMS_PATIENT_MASTER ON  HIM_BRANCH_ID = HPM_BRANCH_ID AND  HIM_PT_ID = HPM_PT_ID

			  WHERE  1=1   AND HIT_LAB_STATUS IS NULL  AND HIT_SERV_TYPE='L'   AND HIM_BRANCH_ID='MAIN' AND   CONVERT(datetime,convert(varchar(10),HIM_DATE,101),101) >= '2021-02-03 00:00:00 ' AND   CONVERT(datetime,convert(varchar(10),HIM_DATE,101),101) <= '2021-02-03 00:00:00 '  GROUP BY HIM_INVOICE_ID  ORDER BY ID
-----------------------------------------------
03/02/2021 5:15:55 PMbtnShow_Click
Column 'HMS_INVOICE_TRANSACTION.HIT_SERV_CODE' is invalid in the select list because it is not contained in either an aggregate function or the GROUP BY clause.
	
				SELECT DISTINCT HIM_INVOICE_ID AS ID,
				MAX( HIM_PT_ID )as FileNo
				,MAX(HIM_PT_NAME) as PatientName
				,MAX( HPM_MOBILE) AS MobileNo
				,MAX(HIM_DR_NAME) as Doctor
				,'Invoice' as TransType
				, MAX(HIM_INVOICE_TYPE) as PatientType 
				,''  AS ServiceRequested
				,CONVERT(VARCHAR,MAX(HIM_DATE),103) AS TransDate
				,MAX(HIM_DR_CODE) AS DoctorID
				,'' as ServiceID
				,CASE WHEN MAX(HIT_LAB_STATUS) ='LAB_REGISTERED' THEN 'Test Registred'  WHEN MAX(HIT_LAB_STATUS) ='LAB_SAMPLE_COLLECTED' THEN 'Sample Collected' 
				    WHEN MAX(HIT_LAB_STATUS) ='LAB_TEST_COMPLETED' THEN 'Test Completed'  ELSE 'Waiting' END AS Status
				,'Completed' AS InvoiceStatus
				,(select TOP 1 EPL_PRIORITY from EMR_PT_LABORATORY where EPL_ID = MAX(HIM_EMR_ID) AND EPL_SERV_ID = HIT_SERV_CODE )   as Priority
				 FROM HMS_INVOICE_MASTER INNER JOIN HMS_INVOICE_TRANSACTION ON HIM_INVOICE_ID=HIT_INVOICE_ID LEFT JOIN
					HMS_PATIENT_MASTER ON  HIM_BRANCH_ID = HPM_BRANCH_ID AND  HIM_PT_ID = HPM_PT_ID

			  WHERE  1=1   AND HIT_LAB_STATUS IS NULL  AND HIT_SERV_TYPE='L'   AND HIM_BRANCH_ID='MAIN' AND   CONVERT(datetime,convert(varchar(10),HIM_DATE,101),101) >= '2021-02-03 00:00:00 ' AND   CONVERT(datetime,convert(varchar(10),HIM_DATE,101),101) <= '2021-02-03 00:00:00 '  GROUP BY HIM_INVOICE_ID  ORDER BY ID
-----------------------------------------------
03/02/2021 5:15:55 PMbtnShow_Click
Column 'HMS_INVOICE_TRANSACTION.HIT_SERV_CODE' is invalid in the select list because it is not contained in either an aggregate function or the GROUP BY clause.
	
				SELECT DISTINCT HIM_INVOICE_ID AS ID,
				MAX( HIM_PT_ID )as FileNo
				,MAX(HIM_PT_NAME) as PatientName
				,MAX( HPM_MOBILE) AS MobileNo
				,MAX(HIM_DR_NAME) as Doctor
				,'Invoice' as TransType
				, MAX(HIM_INVOICE_TYPE) as PatientType 
				,''  AS ServiceRequested
				,CONVERT(VARCHAR,MAX(HIM_DATE),103) AS TransDate
				,MAX(HIM_DR_CODE) AS DoctorID
				,'' as ServiceID
				,CASE WHEN MAX(HIT_LAB_STATUS) ='LAB_REGISTERED' THEN 'Test Registred'  WHEN MAX(HIT_LAB_STATUS) ='LAB_SAMPLE_COLLECTED' THEN 'Sample Collected' 
				    WHEN MAX(HIT_LAB_STATUS) ='LAB_TEST_COMPLETED' THEN 'Test Completed'  ELSE 'Waiting' END AS Status
				,'Completed' AS InvoiceStatus
				,(select TOP 1 EPL_PRIORITY from EMR_PT_LABORATORY where EPL_ID = MAX(HIM_EMR_ID) AND EPL_SERV_ID = HIT_SERV_CODE )   as Priority
				 FROM HMS_INVOICE_MASTER INNER JOIN HMS_INVOICE_TRANSACTION ON HIM_INVOICE_ID=HIT_INVOICE_ID LEFT JOIN
					HMS_PATIENT_MASTER ON  HIM_BRANCH_ID = HPM_BRANCH_ID AND  HIM_PT_ID = HPM_PT_ID

			  WHERE  1=1   AND HIT_LAB_STATUS IS NULL  AND HIT_SERV_TYPE='L'   AND HIM_BRANCH_ID='MAIN' AND   CONVERT(datetime,convert(varchar(10),HIM_DATE,101),101) >= '2021-02-03 00:00:00 ' AND   CONVERT(datetime,convert(varchar(10),HIM_DATE,101),101) <= '2021-02-03 00:00:00 '  GROUP BY HIM_INVOICE_ID  ORDER BY ID
-----------------------------------------------
03/02/2021 5:42:33 PM btnSave_Click
Column 'LTRM_SERV_ID' does not belong to table Table.
-----------------------------------------------
13/02/2021 16:55:51      PTRegistration.Page_Load
Could not find a part of the path 'D:\Pharmacy\ePrescription\PF2570\Upload_Authorization\'.
-----------------------------------------------
13/02/2021 16:56:03      PTRegistration.Page_Load
Could not find a part of the path 'D:\Pharmacy\ePrescription\PF2570\Upload_Authorization\'.
-----------------------------------------------
13/02/2021 16:56:10      PTRegistration.Page_Load
Could not find a part of the path 'D:\Pharmacy\ePrescription\PF2570\Upload_Authorization\'.
-----------------------------------------------
13/02/2021 17:32:13      PTRegistration.Page_Load
Could not find a part of the path 'D:\Pharmacy\ePrescription\PF2570\Upload_Authorization\'.
-----------------------------------------------
13/02/2021 17:32:20      PTRegistration.Page_Load
Could not find a part of the path 'D:\Pharmacy\ePrescription\PF2570\Upload_Authorization\'.
-----------------------------------------------
13/02/2021 17:43:35      PTRegistration.Page_Load
Could not find a part of the path 'D:\Pharmacy\ePrescription\PF2570\Upload_Authorization\'.
-----------------------------------------------
16/02/2021 12:40:11      PTRegistration.Page_Load
Could not find a part of the path 'D:\Pharmacy\ePrescription\PF2570\Upload_Authorization\'.
-----------------------------------------------
16/02/2021 14:30:58      PTRegistration.Page_Load
Could not find a part of the path 'D:\Pharmacy\ePrescription\PF2570\Upload_Authorization\'.
-----------------------------------------------
16/02/2021 14:50:02      PTRegistration.Page_Load
Could not find a part of the path 'D:\Pharmacy\ePrescription\PF2570\Upload_Authorization\'.
-----------------------------------------------
16/02/2021 14:51:24      PTRegistration.Page_Load
Could not find a part of the path 'D:\Pharmacy\ePrescription\PF2570\Upload_Authorization\'.
-----------------------------------------------
16/02/2021 15:45:29      CompanyProfile.txtCompCode_TextChanged
Column 'HCM_VAT_LIC_NO' does not belong to table Table.
-----------------------------------------------
16/02/2021 15:45:49      CompanyProfile.btnSave_Click
@HCM_VAT_LIC_NO is not a parameter for procedure HMS_SP_CompanyMasterAdd.
-----------------------------------------------
16/02/2021 15:45:56      CompanyProfile.btnSave_Click
@HCM_VAT_LIC_NO is not a parameter for procedure HMS_SP_CompanyMasterAdd.
-----------------------------------------------
16/02/2021 15:48:01      CompanyProfile.txtCompCode_TextChanged
Column 'HCM_VAT_LIC_NO' does not belong to table Table.
-----------------------------------------------
16/02/2021 15:48:05      CompanyProfile.txtCompCode_TextChanged
Column 'HCM_VAT_LIC_NO' does not belong to table Table.
-----------------------------------------------
16/02/2021 15:49:08      CompanyProfile.txtCompCode_TextChanged
Column 'HCM_VAT_LIC_NO' does not belong to table Table.
-----------------------------------------------
16/02/2021 15:49:21      CompanyProfile.txtCompCode_TextChanged
Column 'HCM_VAT_LIC_NO' does not belong to table Table.
-----------------------------------------------
16/02/2021 15:49:36      CompanyProfile.txtCompCode_TextChanged
Column 'HCM_VAT_LIC_NO' does not belong to table Table.
-----------------------------------------------
16/02/2021 15:49:49      CompanyProfile.txtCompCode_TextChanged
Column 'HCM_VAT_LIC_NO' does not belong to table Table.
-----------------------------------------------
16/02/2021 15:49:54      CompanyProfile.btnSave_Click
@HCM_VAT_LIC_NO is not a parameter for procedure HMS_SP_CompanyMasterAdd.
-----------------------------------------------
16/02/2021 16:01:03      CompanyProfile.btnSave_Click
@HCM_VAT_LIC_NO is not a parameter for procedure HMS_SP_CompanyMasterAdd.
-----------------------------------------------
16/02/2021 16:01:09      CompanyProfile.txtCompCode_TextChanged
Column 'HCM_VAT_LIC_NO' does not belong to table Table.
-----------------------------------------------
16/02/2021 16:01:13      CompanyProfile.txtCompCode_TextChanged
Column 'HCM_VAT_LIC_NO' does not belong to table Table.
-----------------------------------------------
16/02/2021 16:55:52      CompanyProfile.txtCompCode_TextChanged
Column 'HCM_VAT_LIC_NO' does not belong to table Table.
-----------------------------------------------
16/02/2021 16:55:57      CompanyProfile.btnSave_Click
@HCM_VAT_LIC_NO is not a parameter for procedure HMS_SP_CompanyMasterAdd.
-----------------------------------------------
16/02/2021 17:09:41      CompanyProfile.txtCompCode_TextChanged
Column 'HCM_VAT_LIC_NO' does not belong to table Table.
-----------------------------------------------
16/02/2021 17:14:09      CompanyProfile.btnSave_Click
@HCM_VAT_LIC_NO is not a parameter for procedure HMS_SP_CompanyMasterAdd.
-----------------------------------------------
16/02/2021 17:16:08      CompanyProfile.txtCompCode_TextChanged
Column 'HCM_VAT_LIC_NO' does not belong to table Table.
-----------------------------------------------
16/02/2021 17:16:29      CompanyProfile.btnSave_Click
@HCM_VAT_LIC_NO is not a parameter for procedure HMS_SP_CompanyMasterAdd.
-----------------------------------------------
16/02/2021 17:17:34      CompanyProfile.btnSave_Click
@HCM_VAT_LIC_NO is not a parameter for procedure HMS_SP_CompanyMasterAdd.
-----------------------------------------------
16/02/2021 17:23:55      CompanyProfile.txtCompCode_TextChanged
Column 'HCM_VAT_LIC_NO' does not belong to table Table.
-----------------------------------------------
16/02/2021 17:27:09      CompanyProfile.txtCompCode_TextChanged
Column 'HCM_VAT_LIC_NO' does not belong to table Table.
-----------------------------------------------
16/02/2021 17:33:17      CompanyProfile.btnSave_Click
@HCM_VAT_LIC_NO is not a parameter for procedure HMS_SP_CompanyMasterAdd.
-----------------------------------------------
16/02/2021 17:34:07      CompanyProfile.txtCompCode_TextChanged
Column 'HCM_VAT_LIC_NO' does not belong to table Table.
-----------------------------------------------
16/02/2021 17:34:16      CompanyProfile.txtCompCode_TextChanged
Column 'HCM_VAT_LIC_NO' does not belong to table Table.
-----------------------------------------------
16/02/2021 17:36:49      CompanyProfile.txtCompCode_TextChanged
Column 'HCM_VAT_LIC_NO' does not belong to table Table.
-----------------------------------------------
16/02/2021 17:37:14      CompanyProfile.txtCompCode_TextChanged
Column 'HCM_VAT_LIC_NO' does not belong to table Table.
-----------------------------------------------
16/02/2021 17:38:06      CompanyProfile.txtCompCode_TextChanged
Column 'HCM_VAT_LIC_NO' does not belong to table Table.
-----------------------------------------------
16/02/2021 17:38:09      CompanyProfile.txtCompCode_TextChanged
Column 'HCM_VAT_LIC_NO' does not belong to table Table.
-----------------------------------------------
16/02/2021 17:48:30      CompanyProfile.txtCompCode_TextChanged
Column 'HCM_VAT_LIC_NO' does not belong to table Table.
-----------------------------------------------
16/02/2021 17:48:39      CompanyProfile.txtCompCode_TextChanged
Column 'HCM_VAT_LIC_NO' does not belong to table Table.
-----------------------------------------------
16/02/2021 17:50:28      CompanyProfile.txtCompCode_TextChanged
Column 'HCM_VAT_LIC_NO' does not belong to table Table.
-----------------------------------------------
16/02/2021 17:51:06      CompanyProfile.txtCompCode_TextChanged
Column 'HCM_VAT_LIC_NO' does not belong to table Table.
-----------------------------------------------
16/02/2021 17:51:11      CompanyProfile.txtCompCode_TextChanged
Column 'HCM_VAT_LIC_NO' does not belong to table Table.
-----------------------------------------------
16/02/2021 18:14:08      CompanyProfile.txtCompCode_TextChanged
Column 'HCM_VAT_LIC_NO' does not belong to table Table.
-----------------------------------------------
16/02/2021 18:18:43      CompanyProfile.txtCompCode_TextChanged
Column 'HCM_VAT_LIC_NO' does not belong to table Table.
-----------------------------------------------
16/02/2021 18:18:45      CompanyProfile.txtCompCode_TextChanged
Column 'HCM_VAT_LIC_NO' does not belong to table Table.
-----------------------------------------------
16/02/2021 18:20:29      CompanyProfile.txtCompCode_TextChanged
Column 'HCM_VAT_LIC_NO' does not belong to table Table.
-----------------------------------------------
16/02/2021 18:21:11      CompanyProfile.txtCompCode_TextChanged
Column 'HCM_VAT_LIC_NO' does not belong to table Table.
-----------------------------------------------
16/02/2021 18:21:21      CompanyProfile.btnSave_Click
@HCM_VAT_LIC_NO is not a parameter for procedure HMS_SP_CompanyMasterAdd.
-----------------------------------------------
16/02/2021 18:50:42      PTRegistration.Page_Load
Could not find a part of the path 'D:\Pharmacy\ePrescription\PF2570\Upload_Authorization\'.
-----------------------------------------------
17/02/2021 13:26:48      PTRegistration.Page_Load
Could not find a part of the path 'D:\Pharmacy\ePrescription\PF2570\Upload_Authorization\'.
-----------------------------------------------
18/02/2021 18:17:36      PTRegistration.Page_Load
Could not find a part of the path 'D:\Pharmacy\ePrescription\PF2570\Upload_Authorization\'.
-----------------------------------------------
18/02/2021 18:17:36      PTRegistration.Page_Load
Could not find a part of the path 'D:\Pharmacy\ePrescription\PF2570\Upload_Authorization\'.
-----------------------------------------------
18/02/2021 18:25:31      PTRegistration.Page_Load
Could not find a part of the path 'D:\Pharmacy\ePrescription\PF2570\Upload_Authorization\'.
-----------------------------------------------
18/02/2021 18:25:46      PTRegistration.Page_Load
Could not find a part of the path 'D:\Pharmacy\ePrescription\PF2570\Upload_Authorization\'.
-----------------------------------------------
18/02/2021 18:32:35      PTRegistration.Page_Load
Could not find a part of the path 'D:\Pharmacy\ePrescription\PF2570\Upload_Authorization\'.
18/02/2021 18:46:04  Save Started 
18/02/2021 18:46:04Patent Master Insert End 
18/02/2021 19:17:51  Save Started 
-----------------------------------------------
18/02/2021 19:17:51      PTRegistration.btnSave_Click
@HPM_REMARKS is not a parameter for procedure HMS_SP_PTMasterDemographicAdd.
18/02/2021 19:25:30  Save Started 
18/02/2021 19:25:30Patent Master Insert End 
Malaffi table already this data available PT ID =2
18/02/2021 19:28:04  Save Started 
18/02/2021 19:31:01Patent Master Insert End 
Malaffi table already this data available PT ID =2
18/02/2021 19:31:27  Save Started 
18/02/2021 19:31:27Patent Master Insert End 
Malaffi table already this data available PT ID =2
18/02/2021 19:33:26  Save Started 
18/02/2021 19:33:26Patent Master Insert End 
Malaffi table already this data available PT ID =2
19/02/2021 12:59:44  Save Started 
19/02/2021 13:12:45Patent Master Insert End 
Malaffi table already this data available PT ID =2
