
-----------------------------------------------
03/01/2021 9:40:23 AM      Invoice.txtServCode_TextChanged
'drpServCoInsPres' has a SelectedValue which is invalid because it does not exist in the list of items.
Parameter name: value
-----------------------------------------------
03/01/2021 9:40:23 AM      Invoice.txtServCode_TextChanged
'drpServCoInsPres' has a SelectedValue which is invalid because it does not exist in the list of items.
Parameter name: value
03/01/2021 10:07:38 AM  Save Started 
03/01/2021 10:07:38 AMPatent Master Insert End 
03/01/2021 10:12:11 AM Patient Visit Save Started 
03/01/2021 10:13:05 AMPatient Visit Insert End 
03/01/2021 1:08:54 PM  Save Started 
03/01/2021 1:08:55 PMPatent Master Insert End 
03/01/2021 2:54:01 PM  Save Started 
03/01/2021 2:54:02 PMPatent Master Insert End 
Malaffi table already this data available PT ID =K00551
 BindInvoice() completed
 BindInvoiceTrans() completed
 BindTempInvoiceTrans() completed
 AmountCalculation() completed
 payer ID =  Received ID
 BindInvoice() completed
 BindInvoiceTrans() completed
 BindTempInvoiceTrans() completed
 AmountCalculation() completed
 payer ID =  Received ID
 BindInvoice() completed
 BindInvoiceTrans() completed
 BindTempInvoiceTrans() completed
 AmountCalculation() completed
 payer ID =  Received ID
 BindInvoice() completed
 BindInvoiceTrans() completed
 BindTempInvoiceTrans() completed
 AmountCalculation() completed
 payer ID =  Received ID
 BindInvoice() completed
 BindInvoiceTrans() completed
 BindTempInvoiceTrans() completed
 AmountCalculation() completed
 payer ID =  Received ID
 BindInvoice() completed
 BindInvoiceTrans() completed
 BindTempInvoiceTrans() completed
 AmountCalculation() completed
 payer ID = E001 Received IDD001
 BindInvoice() completed
 BindInvoiceTrans() completed
 BindTempInvoiceTrans() completed
 AmountCalculation() completed
 payer ID = E001 Received IDD001
 BindInvoice() completed
 BindInvoiceTrans() completed
 BindTempInvoiceTrans() completed
 AmountCalculation() completed
 payer ID = E001 Received IDD001
 BindInvoice() completed
 BindInvoiceTrans() completed
 BindTempInvoiceTrans() completed
 AmountCalculation() completed
 payer ID = E001 Received IDD001
 BindInvoice() completed
 BindInvoiceTrans() completed
 BindTempInvoiceTrans() completed
 AmountCalculation() completed
 payer ID = A001 Received IDC019
 BindInvoice() completed
 BindInvoiceTrans() completed
 BindTempInvoiceTrans() completed
 AmountCalculation() completed
 payer ID = E001 Received IDD001
 BindInvoice() completed
 BindInvoiceTrans() completed
 BindTempInvoiceTrans() completed
 AmountCalculation() completed
 payer ID = E001 Received IDD001
 BindInvoice() completed
 BindInvoiceTrans() completed
 BindTempInvoiceTrans() completed
 AmountCalculation() completed
 payer ID = A001 Received IDC019
 BindInvoice() completed
 BindInvoiceTrans() completed
 BindTempInvoiceTrans() completed
 AmountCalculation() completed
 payer ID = A001 Received IDC019
 BindInvoice() completed
 BindInvoiceTrans() completed
 BindTempInvoiceTrans() completed
 AmountCalculation() completed
 payer ID = A001 Received IDC019
 BindInvoice() completed
 BindInvoiceTrans() completed
 BindTempInvoiceTrans() completed
 AmountCalculation() completed
 payer ID = A001 Received IDC019
 BindInvoice() completed
 BindInvoiceTrans() completed
 BindTempInvoiceTrans() completed
 AmountCalculation() completed
 payer ID = A001 Received IDC019
04/01/2021 9:44:32 AM  Save Started 
04/01/2021 9:44:32 AMPatent Master Insert End 
 BindInvoice() completed
 BindInvoiceTrans() completed
 BindTempInvoiceTrans() completed
 AmountCalculation() completed
 payer ID = A001 Received IDC019
 BindInvoice() completed
 BindInvoiceTrans() completed
 BindTempInvoiceTrans() completed
 AmountCalculation() completed
 payer ID = A001 Received IDC019
 BindInvoice() completed
 BindInvoiceTrans() completed
 BindTempInvoiceTrans() completed
 AmountCalculation() completed
 payer ID = A001 Received IDC019
 BindInvoice() completed
 BindInvoiceTrans() completed
 BindTempInvoiceTrans() completed
 AmountCalculation() completed
 payer ID = A001 Received IDC019
 BindInvoice() completed
 BindInvoiceTrans() completed
 BindTempInvoiceTrans() completed
 AmountCalculation() completed
 payer ID = A001 Received IDC019
 BindInvoice() completed
 BindInvoiceTrans() completed
 BindTempInvoiceTrans() completed
 AmountCalculation() completed
 payer ID = A001 Received IDC019
 BindInvoice() completed
 BindInvoiceTrans() completed
 BindTempInvoiceTrans() completed
 AmountCalculation() completed
 payer ID = A001 Received IDC019
 BindInvoice() completed
 BindInvoiceTrans() completed
 BindTempInvoiceTrans() completed
 AmountCalculation() completed
 payer ID = A001 Received IDC019
 BindInvoice() completed
 BindInvoiceTrans() completed
 BindTempInvoiceTrans() completed
 AmountCalculation() completed
 payer ID = A001 Received IDC019
 BindInvoice() completed
 BindInvoiceTrans() completed
 BindTempInvoiceTrans() completed
 AmountCalculation() completed
 payer ID = A001 Received IDC019
 BindInvoice() completed
 BindInvoiceTrans() completed
 BindTempInvoiceTrans() completed
 AmountCalculation() completed
 payer ID = A001 Received IDC019
04/01/2021 3:02:00 PM Patient Visit Save Started 
04/01/2021 3:02:01 PMPatient Visit Insert End 
 BindInvoice() completed
 BindInvoiceTrans() completed
 BindTempInvoiceTrans() completed
 AmountCalculation() completed
 payer ID =  Received ID
 BindInvoice() completed
 BindInvoiceTrans() completed
 BindTempInvoiceTrans() completed
 AmountCalculation() completed
 payer ID =  Received ID
04/01/2021 4:08:06 PM Patient Visit Save Started 
04/01/2021 4:08:06 PMPatient Visit Insert End 
05/01/2021 4:41:23 PM Patient Visit Save Started 
05/01/2021 4:41:27 PMPatient Visit Insert End 
 BindInvoice() completed
 BindInvoiceTrans() completed
 BindTempInvoiceTrans() completed
 AmountCalculation() completed
 payer ID =  Received ID
 BindInvoice() completed
 BindInvoiceTrans() completed
 BindTempInvoiceTrans() completed
 AmountCalculation() completed
 payer ID =  Received ID
 BindInvoice() completed
 BindInvoiceTrans() completed
 BindTempInvoiceTrans() completed
 AmountCalculation() completed
 payer ID =  Received ID
06/01/2021 11:26:18 AM  Save Started 
06/01/2021 11:26:19 AMPatent Master Insert End 
06/01/2021 11:26:35 AM Patient Visit Save Started 
06/01/2021 11:26:35 AMPatient Visit Insert End 
 BindInvoice() completed
 BindInvoiceTrans() completed
 BindTempInvoiceTrans() completed
 AmountCalculation() completed
 payer ID =  Received ID
-----------------------------------------------
07/01/2021 9:39:15 AM      Invoice.txtFileNo_TextChanged
Incorrect syntax near ','.
-----------------------------------------------
07/01/2021 9:41:23 AM      Invoice.txtFileNo_TextChanged
Incorrect syntax near ','.
-----------------------------------------------
07/01/2021 9:41:37 AM      Invoice.txtFileNo_TextChanged
Incorrect syntax near ','.
-----------------------------------------------
07/01/2021 9:44:17 AM      Invoice.txtFileNo_TextChanged
Cannot find table 0.
-----------------------------------------------
07/01/2021 9:44:35 AM      Invoice.txtFileNo_TextChanged
Cannot find table 0.
-----------------------------------------------
07/01/2021 10:15:41 AM      Invoice.txtFileNo_TextChanged
Incorrect syntax near ''.
-----------------------------------------------
07/01/2021 10:25:47 AM      Invoice.txtFileNo_TextChanged
Column 'HPM_DEP_NAME' does not belong to table Table.
-----------------------------------------------
Column 'HPM_DEP_NAME' does not belong to table Table.
-----------------------------------------------
07/01/2021 10:38:50 AM      Invoice.txtFileNo_TextChanged
Column 'HPM_INS_COMP_TYPE' does not belong to table Table.
07/01/2021 10:49:15 AM  Save Started 
07/01/2021 10:49:16 AMPatent Master Insert End 
Malaffi table already this data available PT ID =1
-----------------------------------------------
09/01/2021 9:57:49 AM      Invoice.SelectVisitDtlsAll_Click
Column 'HPV_ELIGIBILITY_ID' does not belong to table Table.
10/01/2021 9:19:17 AM  Save Started 
10/01/2021 9:19:18 AMPatent Master Insert End 
10/01/2021 9:19:34 AM Patient Visit Save Started 
10/01/2021 9:19:34 AMPatient Visit Insert End 
10/01/2021 9:35:07 AM  Save Started 
10/01/2021 9:35:07 AMPatent Master Insert End 
10/01/2021 11:04:59 AM Patient Visit Save Started 
10/01/2021 11:04:59 AMPatient Visit Insert End 
10/01/2021 12:27:25 PM  Save Started 
10/01/2021 12:27:26 PMPatent Master Insert End 
10/01/2021 12:27:49 PM Patient Visit Save Started 
10/01/2021 12:27:49 PMPatient Visit Insert End 
10/01/2021 3:57:24 PM Patient Visit Save Started 
10/01/2021 3:57:36 PMPatient Visit Insert End 
-----------------------------------------------
10/01/2021 3:59:49 PM      Invoice.txtFileNo_TextChanged
Column 'HCM_BILL_CODE' does not belong to table Table.
10/01/2021 5:32:35 PM  Save Started 
10/01/2021 5:32:39 PMPatent Master Insert End 
10/01/2021 5:33:57 PM  Save Started 
10/01/2021 5:33:57 PMPatent Master Insert End 
Malaffi table already this data available PT ID =K00554
10/01/2021 6:51:18 PM  Save Started 
10/01/2021 6:51:18 PMPatent Master Insert End 
Malaffi table already this data available PT ID =K00554
10/01/2021 7:14:09 PM  Save Started 
10/01/2021 7:14:09 PMPatent Master Insert End 
Malaffi table already this data available PT ID =K00554
10/01/2021 7:18:11 PM  Save Started 
10/01/2021 7:18:11 PMPatent Master Insert End 
Malaffi table already this data available PT ID =K00554
10/01/2021 7:20:15 PM Patient Visit Save Started 
10/01/2021 7:20:16 PMPatient Visit Insert End 
11/01/2021 8:57:14 AM  Save Started 
11/01/2021 8:57:15 AMPatent Master Insert End 
Malaffi table already this data available PT ID =K00554
12/01/2021 9:32:34 AM Patient Visit Save Started 
12/01/2021 9:32:35 AMPatient Visit Insert End 
 BindInvoice() completed
 BindInvoiceTrans() completed
 BindTempInvoiceTrans() completed
 AmountCalculation() completed
 payer ID = E001 Received IDD001
 BindInvoice() completed
 BindInvoiceTrans() completed
 BindTempInvoiceTrans() completed
 AmountCalculation() completed
 payer ID = E001 Received IDD001
 BindInvoice() completed
 BindInvoiceTrans() completed
 BindTempInvoiceTrans() completed
 AmountCalculation() completed
 payer ID = E001 Received IDD001
 BindInvoice() completed
 BindInvoiceTrans() completed
 BindTempInvoiceTrans() completed
 AmountCalculation() completed
 payer ID = E001 Received IDD001
 BindInvoice() completed
 BindInvoiceTrans() completed
 BindTempInvoiceTrans() completed
 AmountCalculation() completed
 payer ID = E001 Received IDD001
 BindInvoice() completed
 BindInvoiceTrans() completed
 BindTempInvoiceTrans() completed
 AmountCalculation() completed
 payer ID = E001 Received IDD001
 BindInvoice() completed
 BindInvoiceTrans() completed
 BindTempInvoiceTrans() completed
 AmountCalculation() completed
 payer ID = E001 Received IDD001
 BindInvoice() completed
 BindInvoiceTrans() completed
 BindTempInvoiceTrans() completed
 AmountCalculation() completed
 payer ID =  Received ID
 BindInvoice() completed
 BindInvoiceTrans() completed
 BindTempInvoiceTrans() completed
 AmountCalculation() completed
 payer ID =  Received ID
12/01/2021 7:17:56 PM Patient Visit Save Started 
12/01/2021 7:17:57 PMPatient Visit Insert End 
-----------------------------------------------
13/01/2021 9:13:54 AM      PTRegistration.txtFileNo_TextChanged
Column 'LastVisitedMinutes' does not belong to table Table.
13/01/2021 9:38:58 AM Patient Visit Save Started 
13/01/2021 9:39:05 AMPatient Visit Insert End 
 BindInvoice() completed
 BindInvoiceTrans() completed
 BindTempInvoiceTrans() completed
 AmountCalculation() completed
 payer ID =  Received ID
13/01/2021 9:52:21 AM  Save Started 
13/01/2021 9:52:22 AMPatent Master Insert End 
13/01/2021 9:57:04 AM Patient Visit Save Started 
13/01/2021 9:57:04 AMPatient Visit Insert End 
 BindInvoice() completed
 BindInvoiceTrans() completed
 BindTempInvoiceTrans() completed
 AmountCalculation() completed
 payer ID =  Received ID
 BindInvoice() completed
 BindInvoiceTrans() completed
 BindTempInvoiceTrans() completed
 AmountCalculation() completed
 payer ID =  Received ID
13/01/2021 2:46:33 PM Patient Visit Save Started 
13/01/2021 2:46:33 PMPatient Visit Insert End 
-----------------------------------------------
17/01/2021 11:10:09 AM      Resubmission.SelectClaim_Click
Column 'HIM_DR_CODE' does not belong to table Table.
-----------------------------------------------
17/01/2021 11:17:24 AM      Resubmission.SelectClaim_Click
Column 'HIM_DR_CODE' does not belong to table Table.
-----------------------------------------------
17/01/2021 11:17:54 AM      Resubmission.SelectClaim_Click
Column 'HIM_DR_CODE' does not belong to table Table.
 btnSearch_Click  Start 
 BindClaims  1 
 BindClaims  2 
 BindClaims   3  1=1  AND   CONVERT(datetime,convert(varchar(10),Start,101),101) >= '2020-12-01' AND    CONVERT(datetime,convert(varchar(10),Start,101),101)  <= '2021-01-17' AND   ClaimSubmitted  ='Pending'
 BindClaims  4 
 BindClaims  5 
 BindClaims  8 
 BindClaims  9 
 BindClaims  10 
 BindClaims  13 
 btnSearch_Click  END 
 BindInvoice() completed
 BindInvoiceTrans() completed
 BindTempInvoiceTrans() completed
 AmountCalculation() completed
 payer ID =  Received ID
 btnSearch_Click  Start 
 BindClaims  1 
 BindClaims  2 
 BindClaims   3  1=1  AND   CONVERT(datetime,convert(varchar(10),Start,101),101) >= '2020-01-01' AND    CONVERT(datetime,convert(varchar(10),Start,101),101)  <= '2021-01-17' AND   ClaimSubmitted  ='Pending'
 BindClaims  4 
 BindClaims  5 
 BindClaims  8 
 BindClaims  9 
 BindClaims  10 
 BindClaims  13 
 btnSearch_Click  END 
 BindInvoice() completed
 BindInvoiceTrans() completed
 BindTempInvoiceTrans() completed
 AmountCalculation() completed
 payer ID = A001 Received IDC019
 BindInvoice() completed
 BindInvoiceTrans() completed
 BindTempInvoiceTrans() completed
 AmountCalculation() completed
 payer ID =  Received ID
 BindInvoice() completed
 BindInvoiceTrans() completed
 BindTempInvoiceTrans() completed
 AmountCalculation() completed
 payer ID = A001 Received IDC019
 BindInvoice() completed
 BindInvoiceTrans() completed
 BindTempInvoiceTrans() completed
 AmountCalculation() completed
 payer ID =  Received ID
 BindInvoice() completed
 BindInvoiceTrans() completed
 BindTempInvoiceTrans() completed
 AmountCalculation() completed
 payer ID =  Received ID
19/01/2021 5:01:16 PM Patient Visit Save Started 
19/01/2021 5:01:16 PMPatient Visit Insert End 
24/01/2021 12:06:01 PM  Save Started 
24/01/2021 12:06:08 PMPatent Master Insert End 
24/01/2021 12:06:31 PM Patient Visit Save Started 
24/01/2021 12:06:31 PMPatient Visit Insert End 
 BindInvoice() completed
 BindInvoiceTrans() completed
 BindTempInvoiceTrans() completed
 AmountCalculation() completed
 payer ID =  Received ID
 BindInvoice() completed
 BindInvoiceTrans() completed
 BindTempInvoiceTrans() completed
 AmountCalculation() completed
 payer ID =  Received ID
 BindInvoice() completed
 BindInvoiceTrans() completed
 BindTempInvoiceTrans() completed
 AmountCalculation() completed
 payer ID =  Received ID
24/01/2021 5:40:56 PM  Save Started 
24/01/2021 5:40:56 PMPatent Master Insert End 
24/01/2021 5:41:19 PM Patient Visit Save Started 
24/01/2021 5:41:19 PMPatient Visit Insert End 
 BindInvoice() completed
 BindInvoiceTrans() completed
 BindTempInvoiceTrans() completed
 AmountCalculation() completed
 payer ID =  Received ID
 BindInvoice() completed
 BindInvoiceTrans() completed
 BindTempInvoiceTrans() completed
 AmountCalculation() completed
 payer ID =  Received ID
27/01/2021 11:56:38 AMEdit_Click Started
27/01/2021 11:56:45 AMEdit_Click Started
27/01/2021 12:00:49 PMEdit_Click Started
30/01/2021 10:41:05 AM Patient Visit Save Started 
30/01/2021 10:41:06 AMPatient Visit Insert End 
-----------------------------------------------
30/01/2021 2:14:04 PMPage_Load
Incorrect syntax near the keyword 'AND'.
 btnSearch_Click  Start 
 BindClaims  1 
 BindClaims  2 
 BindClaims   3  1=1  AND   CONVERT(datetime,convert(varchar(10),Start,101),101) >= '2021-01-30' AND    CONVERT(datetime,convert(varchar(10),Start,101),101)  <= '2021-01-30' AND CompID ='I00006' AND   ClaimSubmitted  ='Pending'
 BindClaims  4 
 BindClaims  5 
 BindClaims  8 
 btnSearch_Click  END 
30/01/2021 2:54:09 PMEdit_Click Started
