
PatientWaitingList 01/02/2021 11:26:42.017 AM txtFileNo_TextChanged Start
01/02/2021 11:26:42.170 AM Clear() completed
01/02/2021 11:26:42.288 AM BindModifyData() 1
01/02/2021 11:26:43.075 AM BindModifyData() 2
01/02/2021 11:26:43.171 AM BindModifyData() 3
01/02/2021 11:26:43.171 AM BindModifyData() 4
01/02/2021 11:26:43.369 AM BindModifyData() 5
01/02/2021 11:26:43.369 AM BindModifyData() 6
01/02/2021 11:26:43.369 AM BindModifyData() 7
01/02/2021 11:26:43.369 AM BindModifyData() 8
01/02/2021 11:26:43.369 AM BindModifyData() 9
01/02/2021 11:26:43.370 AM BindScanCardImagePath() Start
01/02/2021 11:26:43.453 AM BindScanCardImageGet() Start
01/02/2021 11:26:43.778 AM BindCompanyDetails() Start
01/02/2021 11:26:43.888 AM BindCompanyDetails() End
01/02/2021 11:26:43.900 AM BindSubCompany() Start
01/02/2021 11:26:43.987 AM BindSubCompany() End
01/02/2021 11:26:43.987 AM BindPlanType() Start
01/02/2021 11:26:44.151 AM BindPlanType() End
01/02/2021 11:26:44.151 AM BindToken() Start
01/02/2021 11:26:44.205 AM BindGCGrid() Start
01/02/2021 11:26:44.286 AM GetPatientVisit() Start
01/02/2021 11:26:44.399 AM BindPatientVisitLabel() Start
01/02/2021 11:26:44.404 AM CheckCompanyActive() Start
01/02/2021 11:26:44.410 AM CheckCompanyActive() End
01/02/2021 11:26:44.907 AM BindModifyData() completed
01/02/2021 11:26:44.907 AM txtFileNo_TextChanged End

PatientWaitingList 01/02/2021 11:27:44.163 AM  PT_ID =k50 btnSaveVisit_Click Start
01/02/2021 11:27:44.173 AM  PT_ID =k50 GetAppoinmentDtls() End
01/02/2021 11:27:44.221 AM  PT_ID =k50 CheckVisitExist() End

PatientWaitingList 01/02/2021 11:29:39.121 AM txtFileNo_TextChanged Start
01/02/2021 11:29:39.122 AM Clear() completed
01/02/2021 11:29:39.122 AM BindModifyData() 1
01/02/2021 11:29:39.140 AM BindModifyData() 2
01/02/2021 11:29:39.140 AM BindModifyData() 3
01/02/2021 11:29:39.140 AM BindModifyData() 4
01/02/2021 11:29:39.178 AM BindModifyData() 5
01/02/2021 11:29:39.178 AM BindModifyData() 6
01/02/2021 11:29:39.178 AM BindModifyData() 7
01/02/2021 11:29:39.178 AM BindModifyData() 8
01/02/2021 11:29:39.178 AM BindModifyData() 9
01/02/2021 11:29:39.178 AM BindScanCardImagePath() Start
01/02/2021 11:29:39.179 AM BindScanCardImageGet() Start
01/02/2021 11:29:39.181 AM BindCompanyDetails() Start
01/02/2021 11:29:39.220 AM BindCompanyDetails() End
01/02/2021 11:29:39.220 AM BindSubCompany() Start
01/02/2021 11:29:39.422 AM BindSubCompany() End
01/02/2021 11:29:39.422 AM BindPlanType() Start
01/02/2021 11:29:39.432 AM BindPlanType() End
01/02/2021 11:29:39.432 AM BindToken() Start
01/02/2021 11:29:39.433 AM BindGCGrid() Start
01/02/2021 11:29:39.434 AM GetPatientVisit() Start
01/02/2021 11:29:39.449 AM BindPatientVisitLabel() Start
01/02/2021 11:29:39.449 AM CheckCompanyActive() Start
01/02/2021 11:29:39.451 AM CheckCompanyActive() End
01/02/2021 11:29:39.464 AM BindModifyData() completed
01/02/2021 11:29:39.464 AM txtFileNo_TextChanged End

PatientWaitingList 01/02/2021 11:30:00.364 AM  PT_ID =k50 btnSaveVisit_Click Start
01/02/2021 11:30:00.366 AM  PT_ID =k50 GetAppoinmentDtls() End
01/02/2021 11:30:00.368 AM  PT_ID =k50 CheckVisitExist() End

PatientWaitingList 01/02/2021 11:30:43.613 AM  PT_ID =k50 btnSaveVisit_Click Start
01/02/2021 11:30:43.616 AM  PT_ID =k50 GetAppoinmentDtls() End
01/02/2021 11:30:43.619 AM  PT_ID =k50 CheckVisitExist() End

PatientWaitingList 01/02/2021 11:31:40.461 AM  PT_ID =K50 Patient Registration btnSave_Click Start
01/02/2021 11:31:40.864 AM  PT_ID =K50 Patient Registration CheckPatientNameChanged() End
01/02/2021 11:31:40.864 AM  PT_ID =K50 Patient Registration  EID_DUPLICATE_CHECK End
01/02/2021 11:31:40.895 AM  PT_ID =K50 Patient Registration  Validation End
01/02/2021 11:31:40.973 AM  PT_ID =K50 Patient Registration  Save Started 
01/02/2021 11:31:41.558 AM  PT_ID =K50 Patient Registration  Insert End 

PatientWaitingList 01/02/2021 11:31:57.405 AM txtFileNo_TextChanged Start
01/02/2021 11:31:57.406 AM Clear() completed
01/02/2021 11:31:57.406 AM BindModifyData() 1
01/02/2021 11:31:57.408 AM BindModifyData() 2
01/02/2021 11:31:57.408 AM BindModifyData() 3
01/02/2021 11:31:57.408 AM BindModifyData() 4
01/02/2021 11:31:57.416 AM BindModifyData() 5
01/02/2021 11:31:57.416 AM BindModifyData() 6
01/02/2021 11:31:57.416 AM BindModifyData() 7
01/02/2021 11:31:57.416 AM BindModifyData() 8
01/02/2021 11:31:57.416 AM BindModifyData() 9
01/02/2021 11:31:57.416 AM BindScanCardImagePath() Start
01/02/2021 11:31:57.417 AM BindScanCardImageGet() Start
01/02/2021 11:31:57.418 AM BindCompanyDetails() Start
01/02/2021 11:31:57.419 AM BindCompanyDetails() End
01/02/2021 11:31:57.419 AM BindSubCompany() Start
01/02/2021 11:31:57.420 AM BindSubCompany() End
01/02/2021 11:31:57.420 AM BindPlanType() Start
01/02/2021 11:31:57.422 AM BindPlanType() End
01/02/2021 11:31:57.422 AM BindToken() Start
01/02/2021 11:31:57.423 AM BindGCGrid() Start
01/02/2021 11:31:57.424 AM GetPatientVisit() Start
01/02/2021 11:31:57.426 AM BindPatientVisitLabel() Start
01/02/2021 11:31:57.426 AM CheckCompanyActive() Start
01/02/2021 11:31:57.427 AM CheckCompanyActive() End
01/02/2021 11:31:57.439 AM BindModifyData() completed
01/02/2021 11:31:57.439 AM txtFileNo_TextChanged End

PatientWaitingList 01/02/2021 11:32:14.382 AM  PT_ID =k50 btnSaveVisit_Click Start
01/02/2021 11:32:14.386 AM  PT_ID =k50 GetAppoinmentDtls() End
01/02/2021 11:32:14.390 AM  PT_ID =k50 CheckVisitExist() End
01/02/2021 11:32:14.399 AM  PT_ID =k50 Patient Visit Save Started 
01/02/2021 11:32:14.524 AM  PT_ID =k50 Patient Visit Insert End 

PatientWaitingList 01/02/2021 11:33:12.159 AM txtFileNo_TextChanged Start
01/02/2021 11:33:12.160 AM Clear() completed
01/02/2021 11:33:12.160 AM BindModifyData() 1
01/02/2021 11:33:12.947 AM BindModifyData() 2
01/02/2021 11:33:12.947 AM BindModifyData() 3
01/02/2021 11:33:12.947 AM BindModifyData() 4
01/02/2021 11:33:12.958 AM BindModifyData() 5
01/02/2021 11:33:12.958 AM BindModifyData() 6
01/02/2021 11:33:12.958 AM BindModifyData() 7
01/02/2021 11:33:12.958 AM BindModifyData() 8
01/02/2021 11:33:12.958 AM BindModifyData() 9
01/02/2021 11:33:12.958 AM BindScanCardImagePath() Start
01/02/2021 11:33:12.962 AM BindScanCardImageGet() Start
01/02/2021 11:33:12.993 AM BindCompanyDetails() Start
01/02/2021 11:33:13.059 AM BindCompanyDetails() End
01/02/2021 11:33:13.059 AM BindSubCompany() Start
01/02/2021 11:33:13.127 AM BindSubCompany() End
01/02/2021 11:33:13.127 AM BindPlanType() Start
01/02/2021 11:33:13.159 AM BindPlanType() End
01/02/2021 11:33:13.159 AM BindToken() Start
01/02/2021 11:33:13.161 AM BindGCGrid() Start
01/02/2021 11:33:13.288 AM GetPatientVisit() Start
01/02/2021 11:33:13.321 AM BindPatientVisitLabel() Start
01/02/2021 11:33:13.325 AM CheckCompanyActive() Start
01/02/2021 11:33:13.338 AM CheckCompanyActive() End
01/02/2021 11:33:13.395 AM BindModifyData() completed
01/02/2021 11:33:13.395 AM txtFileNo_TextChanged End

PatientWaitingList 01/02/2021 11:33:19.152 AM  PT_ID =7 Patient Registration btnSave_Click Start
01/02/2021 11:33:20.227 AM  PT_ID =7 Patient Registration CheckPatientNameChanged() End
01/02/2021 11:33:20.227 AM  PT_ID =7 Patient Registration  EID_DUPLICATE_CHECK End
01/02/2021 11:33:20.273 AM  PT_ID =7 Patient Registration  Validation End
01/02/2021 11:33:20.289 AM  PT_ID =7 Patient Registration  Save Started 
01/02/2021 11:33:20.349 AM  PT_ID =7 Patient Registration  Insert End 
01/02/2021 11:33:20.595 AM  PT_ID =7 Patient Photo Update End 
01/02/2021 11:33:20.796 AM  PT_ID =7 Patient Registration  UpdateAppointmentStatus() End 
01/02/2021 11:33:20.921 AM  PT_ID =7 Patient Registration  Malaffi update Start 
01/02/2021 11:33:20.995 AM  PT_ID =7 Patient Registration  Malaffi update  End 
01/02/2021 11:33:20.995 AM  PT_ID =7 Patient Registration  btnSave_Click End 

PatientWaitingList 01/02/2021 11:33:36.245 AM  PT_ID =7 btnSaveVisit_Click Start
01/02/2021 11:33:36.249 AM  PT_ID =7 GetAppoinmentDtls() End
01/02/2021 11:33:36.281 AM  PT_ID =7 CheckVisitExist() End
01/02/2021 11:33:36.595 AM  PT_ID =7 Patient Visit Save Started 
01/02/2021 11:33:36.617 AM  PT_ID =7 Patient Visit Insert End 
01/02/2021 11:33:36.810 AM  PT_ID =7 Patient PatientInsuranceHistory() End 
01/02/2021 11:33:36.967 AM  PT_ID =7 Patient UpdateAppointmentStatus() End 
01/02/2021 11:33:37.015 AM  PT_ID =7btnSaveVisit_Click End 

PatientWaitingList 03/02/2021 04:47:45.473 PM txtFileNo_TextChanged Start
03/02/2021 04:47:45.536 PM Clear() completed
03/02/2021 04:47:45.536 PM BindModifyData() 1
03/02/2021 04:47:45.848 PM BindModifyData() 2
03/02/2021 04:47:45.879 PM BindModifyData() 3
03/02/2021 04:47:45.879 PM BindModifyData() 4
03/02/2021 04:47:45.894 PM BindModifyData() 5
03/02/2021 04:47:45.894 PM BindModifyData() 6
03/02/2021 04:47:45.894 PM BindModifyData() 7
03/02/2021 04:47:45.894 PM BindModifyData() 8
03/02/2021 04:47:45.894 PM BindModifyData() 9
03/02/2021 04:47:45.894 PM BindScanCardImagePath() Start
03/02/2021 04:47:45.894 PM BindScanCardImageGet() Start
03/02/2021 04:47:45.926 PM BindCompanyDetails() Start
03/02/2021 04:47:46.035 PM BindCompanyDetails() End
03/02/2021 04:47:46.035 PM BindSubCompany() Start
03/02/2021 04:47:46.066 PM BindSubCompany() End
03/02/2021 04:47:46.066 PM BindPlanType() Start
03/02/2021 04:47:46.097 PM BindPlanType() End
03/02/2021 04:47:46.097 PM BindToken() Start
03/02/2021 04:47:46.128 PM BindGCGrid() Start
03/02/2021 04:47:46.191 PM GetPatientVisit() Start
03/02/2021 04:47:46.222 PM BindPatientVisitLabel() Start
03/02/2021 04:47:46.222 PM CheckCompanyActive() Start
03/02/2021 04:47:46.222 PM CheckCompanyActive() End
03/02/2021 04:47:46.628 PM BindModifyData() completed
03/02/2021 04:47:46.628 PM txtFileNo_TextChanged End

PatientWaitingList 03/02/2021 04:48:08.519 PM  PT_ID =6 btnSaveVisit_Click Start
03/02/2021 04:48:08.556 PM  PT_ID =6 GetAppoinmentDtls() End
03/02/2021 04:48:08.583 PM  PT_ID =6 CheckVisitExist() End
03/02/2021 04:48:08.645 PM  PT_ID =6 Patient Visit Save Started 
03/02/2021 04:48:08.780 PM  PT_ID =6 Patient Visit Insert End 
03/02/2021 04:48:08.850 PM  PT_ID =6 Patient PatientInsuranceHistory() End 
03/02/2021 04:48:08.860 PM  PT_ID =6 Patient UpdateAppointmentStatus() End 
03/02/2021 04:48:08.862 PM  PT_ID =6btnSaveVisit_Click End 

PatientWaitingList 18/02/2021 06:45:50.334 pm txtFileNo_TextChanged Start
18/02/2021 06:45:50.340 pm Clear() completed
18/02/2021 06:45:50.341 pm BindModifyData() 1
18/02/2021 06:45:50.386 pm BindModifyData() 2
18/02/2021 06:45:50.411 pm BindModifyData() 3
18/02/2021 06:45:50.411 pm BindModifyData() 4
18/02/2021 06:45:50.424 pm BindModifyData() 5
18/02/2021 06:45:50.424 pm BindModifyData() 6
18/02/2021 06:45:50.424 pm BindModifyData() 7
18/02/2021 06:45:50.424 pm BindModifyData() 8
18/02/2021 06:45:50.424 pm BindModifyData() 9
18/02/2021 06:45:50.425 pm BindScanCardImagePath() Start
18/02/2021 06:45:50.466 pm BindScanCardImageGet() Start
18/02/2021 06:45:50.472 pm BindToken() Start
18/02/2021 06:45:50.481 pm BindGCGrid() Start
18/02/2021 06:45:50.503 pm GetPatientVisit() Start
18/02/2021 06:45:50.558 pm BindPatientVisitLabel() Start
18/02/2021 06:45:50.676 pm BindModifyData() completed
18/02/2021 06:45:50.676 pm txtFileNo_TextChanged End

PatientWaitingList 18/02/2021 06:46:04.505 pm  PT_ID =2 Patient Registration btnSave_Click Start
18/02/2021 06:46:04.542 pm  PT_ID =2 Patient Registration CheckPatientNameChanged() End
18/02/2021 06:46:04.542 pm  PT_ID =2 Patient Registration  EID_DUPLICATE_CHECK End
18/02/2021 06:46:04.547 pm  PT_ID =2 Patient Registration  Validation End
18/02/2021 06:46:04.558 pm  PT_ID =2 Patient Registration  Save Started 
18/02/2021 06:46:04.654 pm  PT_ID =2 Patient Registration  Insert End 
18/02/2021 06:46:04.712 pm  PT_ID =2 Patient Photo Update End 
18/02/2021 06:46:04.723 pm  PT_ID =2 Patient Registration  UpdateAppointmentStatus() End 
18/02/2021 06:46:04.727 pm  PT_ID =2 Patient Registration  Malaffi update Start 
18/02/2021 06:46:04.733 pm  PT_ID =2 Patient Registration  Malaffi update  End 
18/02/2021 06:46:04.733 pm  PT_ID =2 Patient Registration  btnSave_Click End 

PatientWaitingList 18/02/2021 07:17:30.658 pm txtFileNo_TextChanged Start
18/02/2021 07:17:30.664 pm Clear() completed
18/02/2021 07:17:30.665 pm BindModifyData() 1
18/02/2021 07:17:30.692 pm BindModifyData() 2
18/02/2021 07:17:30.718 pm BindModifyData() 3
18/02/2021 07:17:30.718 pm BindModifyData() 4
18/02/2021 07:17:30.728 pm BindModifyData() 5
18/02/2021 07:17:30.728 pm BindModifyData() 6
18/02/2021 07:17:30.728 pm BindModifyData() 7
18/02/2021 07:17:30.728 pm BindModifyData() 8
18/02/2021 07:17:30.728 pm BindModifyData() 9
18/02/2021 07:17:30.729 pm BindScanCardImagePath() Start
18/02/2021 07:17:30.737 pm BindScanCardImageGet() Start
18/02/2021 07:17:30.742 pm BindToken() Start
18/02/2021 07:17:30.753 pm BindGCGrid() Start
18/02/2021 07:17:30.757 pm GetPatientVisit() Start
18/02/2021 07:17:30.785 pm BindPatientVisitLabel() Start
18/02/2021 07:17:30.821 pm BindModifyData() completed
18/02/2021 07:17:30.821 pm txtFileNo_TextChanged End

PatientWaitingList 18/02/2021 07:17:51.125 pm  PT_ID =2 Patient Registration btnSave_Click Start
18/02/2021 07:17:51.155 pm  PT_ID =2 Patient Registration CheckPatientNameChanged() End
18/02/2021 07:17:51.155 pm  PT_ID =2 Patient Registration  EID_DUPLICATE_CHECK End
18/02/2021 07:17:51.159 pm  PT_ID =2 Patient Registration  Validation End
18/02/2021 07:17:51.173 pm  PT_ID =2 Patient Registration  Save Started 

PatientWaitingList 18/02/2021 07:17:58.231 pm txtFileNo_TextChanged Start
18/02/2021 07:17:58.233 pm Clear() completed
18/02/2021 07:17:58.233 pm BindModifyData() 1
18/02/2021 07:17:58.237 pm BindModifyData() 2
18/02/2021 07:17:58.237 pm BindModifyData() 3
18/02/2021 07:17:58.237 pm BindModifyData() 4
18/02/2021 07:17:58.254 pm BindModifyData() 5
18/02/2021 07:17:58.254 pm BindModifyData() 6
18/02/2021 07:17:58.254 pm BindModifyData() 7
18/02/2021 07:17:58.254 pm BindModifyData() 8
18/02/2021 07:17:58.254 pm BindModifyData() 9
18/02/2021 07:17:58.255 pm BindScanCardImagePath() Start
18/02/2021 07:17:58.256 pm BindScanCardImageGet() Start
18/02/2021 07:17:58.258 pm BindToken() Start
18/02/2021 07:17:58.263 pm BindGCGrid() Start
18/02/2021 07:17:58.265 pm GetPatientVisit() Start
18/02/2021 07:17:58.285 pm BindPatientVisitLabel() Start
18/02/2021 07:17:58.312 pm BindModifyData() completed
18/02/2021 07:17:58.312 pm txtFileNo_TextChanged End

PatientWaitingList 18/02/2021 07:25:21.067 pm txtFileNo_TextChanged Start
18/02/2021 07:25:21.068 pm Clear() completed
18/02/2021 07:25:21.068 pm BindModifyData() 1
18/02/2021 07:25:21.071 pm BindModifyData() 2
18/02/2021 07:25:21.071 pm BindModifyData() 3
18/02/2021 07:25:21.071 pm BindModifyData() 4
18/02/2021 07:25:21.082 pm BindModifyData() 5
18/02/2021 07:25:21.082 pm BindModifyData() 6
18/02/2021 07:25:21.082 pm BindModifyData() 7
18/02/2021 07:25:21.082 pm BindModifyData() 8
18/02/2021 07:25:21.082 pm BindModifyData() 9
18/02/2021 07:25:21.083 pm BindScanCardImagePath() Start
18/02/2021 07:25:21.084 pm BindScanCardImageGet() Start
18/02/2021 07:25:21.084 pm BindToken() Start
18/02/2021 07:25:21.085 pm BindGCGrid() Start
18/02/2021 07:25:21.086 pm GetPatientVisit() Start
18/02/2021 07:25:21.098 pm BindPatientVisitLabel() Start
18/02/2021 07:25:21.111 pm BindModifyData() completed
18/02/2021 07:25:21.111 pm txtFileNo_TextChanged End

PatientWaitingList 18/02/2021 07:25:30.854 pm  PT_ID =2 Patient Registration btnSave_Click Start
18/02/2021 07:25:30.856 pm  PT_ID =2 Patient Registration CheckPatientNameChanged() End
18/02/2021 07:25:30.856 pm  PT_ID =2 Patient Registration  EID_DUPLICATE_CHECK End
18/02/2021 07:25:30.858 pm  PT_ID =2 Patient Registration  Validation End
18/02/2021 07:25:30.865 pm  PT_ID =2 Patient Registration  Save Started 
18/02/2021 07:25:30.905 pm  PT_ID =2 Patient Registration  Insert End 
18/02/2021 07:25:30.913 pm  PT_ID =2 Patient Photo Update End 
18/02/2021 07:25:30.920 pm  PT_ID =2 Patient Registration  UpdateAppointmentStatus() End 
18/02/2021 07:25:30.924 pm  PT_ID =2 Patient Registration  Malaffi update Start 
18/02/2021 07:25:30.934 pm  PT_ID =2 Patient Registration  btnSave_Click End 

PatientWaitingList 18/02/2021 07:25:41.703 pm txtFileNo_TextChanged Start
18/02/2021 07:25:41.704 pm Clear() completed
18/02/2021 07:25:41.704 pm BindModifyData() 1
18/02/2021 07:25:41.706 pm BindModifyData() 2
18/02/2021 07:25:41.706 pm BindModifyData() 3
18/02/2021 07:25:41.706 pm BindModifyData() 4
18/02/2021 07:25:41.715 pm BindModifyData() 5
18/02/2021 07:25:41.715 pm BindModifyData() 6
18/02/2021 07:25:41.715 pm BindModifyData() 7
18/02/2021 07:25:41.715 pm BindModifyData() 8
18/02/2021 07:25:41.715 pm BindModifyData() 9
18/02/2021 07:25:41.715 pm BindScanCardImagePath() Start
18/02/2021 07:25:41.717 pm BindScanCardImageGet() Start
18/02/2021 07:25:41.718 pm BindToken() Start
18/02/2021 07:25:41.718 pm BindGCGrid() Start
18/02/2021 07:25:41.719 pm GetPatientVisit() Start
18/02/2021 07:25:41.726 pm BindPatientVisitLabel() Start
18/02/2021 07:25:41.737 pm BindModifyData() completed
18/02/2021 07:25:41.737 pm txtFileNo_TextChanged End

PatientWaitingList 18/02/2021 07:28:04.536 pm  PT_ID =2 Patient Registration btnSave_Click Start
18/02/2021 07:28:04.539 pm  PT_ID =2 Patient Registration CheckPatientNameChanged() End
18/02/2021 07:28:04.539 pm  PT_ID =2 Patient Registration  EID_DUPLICATE_CHECK End
18/02/2021 07:28:04.540 pm  PT_ID =2 Patient Registration  Validation End
18/02/2021 07:28:04.549 pm  PT_ID =2 Patient Registration  Save Started 
18/02/2021 07:31:01.632 pm  PT_ID =2 Patient Registration  Insert End 
18/02/2021 07:31:01.637 pm  PT_ID =2 Patient Photo Update End 
18/02/2021 07:31:01.643 pm  PT_ID =2 Patient Registration  UpdateAppointmentStatus() End 
18/02/2021 07:31:01.651 pm  PT_ID =2 Patient Registration  Malaffi update Start 
18/02/2021 07:31:01.660 pm  PT_ID =2 Patient Registration  btnSave_Click End 

PatientWaitingList 18/02/2021 07:31:16.937 pm txtFileNo_TextChanged Start
18/02/2021 07:31:16.938 pm Clear() completed
18/02/2021 07:31:16.938 pm BindModifyData() 1
18/02/2021 07:31:16.941 pm BindModifyData() 2
18/02/2021 07:31:16.941 pm BindModifyData() 3
18/02/2021 07:31:16.941 pm BindModifyData() 4
18/02/2021 07:31:16.948 pm BindModifyData() 5
18/02/2021 07:31:16.948 pm BindModifyData() 6
18/02/2021 07:31:16.948 pm BindModifyData() 7
18/02/2021 07:31:16.948 pm BindModifyData() 8
18/02/2021 07:31:16.948 pm BindModifyData() 9
18/02/2021 07:31:16.948 pm BindScanCardImagePath() Start
18/02/2021 07:31:16.949 pm BindScanCardImageGet() Start
18/02/2021 07:31:16.950 pm BindToken() Start
18/02/2021 07:31:16.954 pm BindGCGrid() Start
18/02/2021 07:31:16.954 pm GetPatientVisit() Start
18/02/2021 07:31:16.962 pm BindPatientVisitLabel() Start
18/02/2021 07:31:16.975 pm BindModifyData() completed
18/02/2021 07:31:16.975 pm txtFileNo_TextChanged End

PatientWaitingList 18/02/2021 07:31:27.274 pm  PT_ID =2 Patient Registration btnSave_Click Start
18/02/2021 07:31:27.276 pm  PT_ID =2 Patient Registration CheckPatientNameChanged() End
18/02/2021 07:31:27.276 pm  PT_ID =2 Patient Registration  EID_DUPLICATE_CHECK End
18/02/2021 07:31:27.277 pm  PT_ID =2 Patient Registration  Validation End
18/02/2021 07:31:27.284 pm  PT_ID =2 Patient Registration  Save Started 
18/02/2021 07:31:27.309 pm  PT_ID =2 Patient Registration  Insert End 
18/02/2021 07:31:27.334 pm  PT_ID =2 Patient Photo Update End 
18/02/2021 07:31:27.336 pm  PT_ID =2 Patient Registration  UpdateAppointmentStatus() End 
18/02/2021 07:31:27.343 pm  PT_ID =2 Patient Registration  Malaffi update Start 
18/02/2021 07:31:27.350 pm  PT_ID =2 Patient Registration  btnSave_Click End 

PatientWaitingList 18/02/2021 07:33:18.290 pm txtFileNo_TextChanged Start
18/02/2021 07:33:18.291 pm Clear() completed
18/02/2021 07:33:18.291 pm BindModifyData() 1
18/02/2021 07:33:18.297 pm BindModifyData() 2
18/02/2021 07:33:18.297 pm BindModifyData() 3
18/02/2021 07:33:18.297 pm BindModifyData() 4
18/02/2021 07:33:18.304 pm BindModifyData() 5
18/02/2021 07:33:18.304 pm BindModifyData() 6
18/02/2021 07:33:18.304 pm BindModifyData() 7
18/02/2021 07:33:18.304 pm BindModifyData() 8
18/02/2021 07:33:18.304 pm BindModifyData() 9
18/02/2021 07:33:18.304 pm BindScanCardImagePath() Start
18/02/2021 07:33:18.305 pm BindScanCardImageGet() Start
18/02/2021 07:33:18.306 pm BindToken() Start
18/02/2021 07:33:18.307 pm BindGCGrid() Start
18/02/2021 07:33:18.308 pm GetPatientVisit() Start
18/02/2021 07:33:18.317 pm BindPatientVisitLabel() Start
18/02/2021 07:33:18.331 pm BindModifyData() completed
18/02/2021 07:33:18.331 pm txtFileNo_TextChanged End

PatientWaitingList 18/02/2021 07:33:26.668 pm  PT_ID =2 Patient Registration btnSave_Click Start
18/02/2021 07:33:26.691 pm  PT_ID =2 Patient Registration CheckPatientNameChanged() End
18/02/2021 07:33:26.691 pm  PT_ID =2 Patient Registration  EID_DUPLICATE_CHECK End
18/02/2021 07:33:26.691 pm  PT_ID =2 Patient Registration  Validation End
18/02/2021 07:33:26.699 pm  PT_ID =2 Patient Registration  Save Started 
18/02/2021 07:33:26.724 pm  PT_ID =2 Patient Registration  Insert End 
18/02/2021 07:33:26.731 pm  PT_ID =2 Patient Photo Update End 
18/02/2021 07:33:26.736 pm  PT_ID =2 Patient Registration  UpdateAppointmentStatus() End 
18/02/2021 07:33:26.740 pm  PT_ID =2 Patient Registration  Malaffi update Start 
18/02/2021 07:33:26.748 pm  PT_ID =2 Patient Registration  btnSave_Click End 

PatientWaitingList 18/02/2021 07:33:31.468 pm txtFileNo_TextChanged Start
18/02/2021 07:33:31.469 pm Clear() completed
18/02/2021 07:33:31.469 pm BindModifyData() 1
18/02/2021 07:33:31.471 pm BindModifyData() 2
18/02/2021 07:33:31.471 pm BindModifyData() 3
18/02/2021 07:33:31.471 pm BindModifyData() 4
18/02/2021 07:33:31.481 pm BindModifyData() 5
18/02/2021 07:33:31.481 pm BindModifyData() 6
18/02/2021 07:33:31.481 pm BindModifyData() 7
18/02/2021 07:33:31.481 pm BindModifyData() 8
18/02/2021 07:33:31.482 pm BindModifyData() 9
18/02/2021 07:33:31.482 pm BindScanCardImagePath() Start
18/02/2021 07:33:31.483 pm BindScanCardImageGet() Start
18/02/2021 07:33:31.484 pm BindToken() Start
18/02/2021 07:33:31.485 pm BindGCGrid() Start
18/02/2021 07:33:31.486 pm GetPatientVisit() Start
18/02/2021 07:33:31.494 pm BindPatientVisitLabel() Start
18/02/2021 07:33:31.508 pm BindModifyData() completed
18/02/2021 07:33:31.508 pm txtFileNo_TextChanged End

PatientWaitingList 19/02/2021 12:53:24.041 PM txtFileNo_TextChanged Start
19/02/2021 12:53:24.051 PM Clear() completed
19/02/2021 12:53:24.052 PM BindModifyData() 1
19/02/2021 12:53:24.464 PM BindModifyData() 2
19/02/2021 12:53:24.496 PM BindModifyData() 3
19/02/2021 12:53:24.496 PM BindModifyData() 4
19/02/2021 12:53:24.512 PM BindModifyData() 5
19/02/2021 12:53:24.512 PM BindModifyData() 6
19/02/2021 12:53:24.512 PM BindModifyData() 7
19/02/2021 12:53:24.513 PM BindModifyData() 8
19/02/2021 12:53:24.513 PM BindModifyData() 9
19/02/2021 12:53:24.514 PM BindScanCardImagePath() Start
19/02/2021 12:53:24.593 PM BindScanCardImageGet() Start
19/02/2021 12:53:24.597 PM BindToken() Start
19/02/2021 12:53:24.603 PM BindGCGrid() Start
19/02/2021 12:53:24.651 PM GetPatientVisit() Start
19/02/2021 12:53:24.766 PM BindPatientVisitLabel() Start
19/02/2021 12:53:25.064 PM BindModifyData() completed
19/02/2021 12:53:25.064 PM txtFileNo_TextChanged End

PatientWaitingList 19/02/2021 12:53:31.554 PM txtFileNo_TextChanged Start
19/02/2021 12:53:31.555 PM Clear() completed
19/02/2021 12:53:31.555 PM BindModifyData() 1
19/02/2021 12:53:31.585 PM BindModifyData() 2
19/02/2021 12:53:31.585 PM BindModifyData() 3
19/02/2021 12:53:31.585 PM BindModifyData() 4
19/02/2021 12:53:31.593 PM BindModifyData() 5
19/02/2021 12:53:31.593 PM BindModifyData() 6
19/02/2021 12:53:31.593 PM BindModifyData() 7
19/02/2021 12:53:31.594 PM BindModifyData() 8
19/02/2021 12:53:31.594 PM BindModifyData() 9
19/02/2021 12:53:31.594 PM BindScanCardImagePath() Start
19/02/2021 12:53:31.604 PM BindScanCardImageGet() Start
19/02/2021 12:53:31.610 PM BindToken() Start
19/02/2021 12:53:31.611 PM BindGCGrid() Start
19/02/2021 12:53:31.613 PM GetPatientVisit() Start
19/02/2021 12:53:31.649 PM BindPatientVisitLabel() Start
19/02/2021 12:53:31.680 PM BindModifyData() completed
19/02/2021 12:53:31.680 PM txtFileNo_TextChanged End

PatientWaitingList 19/02/2021 12:59:44.819 PM  PT_ID =2 Patient Registration btnSave_Click Start
19/02/2021 12:59:44.941 PM  PT_ID =2 Patient Registration CheckPatientNameChanged() End
19/02/2021 12:59:44.941 PM  PT_ID =2 Patient Registration  EID_DUPLICATE_CHECK End
19/02/2021 12:59:44.951 PM  PT_ID =2 Patient Registration  Validation End
19/02/2021 12:59:44.952 PM  PT_ID =2 Patient Registration  Save Started 
19/02/2021 01:12:45.140 PM  PT_ID =2 Patient Registration  Insert End 
19/02/2021 01:12:45.199 PM  PT_ID =2 Patient Photo Update End 
19/02/2021 01:12:45.216 PM  PT_ID =2 Patient Registration  UpdateAppointmentStatus() End 
19/02/2021 01:12:45.220 PM  PT_ID =2 Patient Registration  Malaffi update Start 
19/02/2021 01:12:45.292 PM  PT_ID =2 Patient Registration  btnSave_Click End 

PatientWaitingList 19/02/2021 01:12:58.869 PM txtFileNo_TextChanged Start
19/02/2021 01:12:58.870 PM Clear() completed
19/02/2021 01:12:58.870 PM BindModifyData() 1
19/02/2021 01:12:58.872 PM BindModifyData() 2
19/02/2021 01:12:58.872 PM BindModifyData() 3
19/02/2021 01:12:58.872 PM BindModifyData() 4
19/02/2021 01:12:58.885 PM BindModifyData() 5
19/02/2021 01:12:58.885 PM BindModifyData() 6
19/02/2021 01:12:58.885 PM BindModifyData() 7
19/02/2021 01:12:58.886 PM BindModifyData() 8
19/02/2021 01:12:58.886 PM BindModifyData() 9
19/02/2021 01:12:58.886 PM BindScanCardImagePath() Start
19/02/2021 01:12:58.888 PM BindScanCardImageGet() Start
19/02/2021 01:12:58.889 PM BindToken() Start
19/02/2021 01:12:58.890 PM BindGCGrid() Start
19/02/2021 01:12:58.891 PM GetPatientVisit() Start
19/02/2021 01:12:58.899 PM BindPatientVisitLabel() Start
19/02/2021 01:12:58.909 PM BindModifyData() completed
19/02/2021 01:12:58.909 PM txtFileNo_TextChanged End

